Numéro,Nom,OK,Candidat,Suppleant,Etiquette,CSS,Website,Picture
001-01,"Première circonscription de l'Ain",0,,,,,,
001-02,"Deuxième circonscription de l'Ain",0,,,,,,
001-03,"Troisième circonscription de l'Ain",0,,,,,,
001-04,"Quatrième circonscription de l'Ain",1,"ADAM Xavier",,"Parti Pirate",pirate,,
001-05,"Cinquième circonscription de l'Ain",0,,,,,,
002-01,"Première circonscription de l'Aisne",0,,,,,,
002-02,"Deuxième circonscription de l'Aisne",0,,,,,,
002-03,"Troisième circonscription de l'Aisne",0,,,,,,
002-04,"Quatrième circonscription de l'Aisne",0,,,,,,
002-05,"Cinquième circonscription de l'Aisne",0,,,,,,
003-01,"Première circonscription de l'Allier",0,,,,,,
003-02,"Deuxième circonscription de l'Allier",0,,,,,,
003-03,"Troisième circonscription de l'Allier",0,,,,,,
004-01,"Première circonscription des Alpes-de-Haute-Provence",0,,,,,,
004-02,"Deuxième circonscription des Alpes-de-Haute-Provence",0,,,,,,
005-01,"Première circonscription des Hautes-Alpes",0,,,,,,
005-02,"Deuxième circonscription des Hautes-Alpes",0,,,,,,
006-01,"Première circonscription des Alpes-Maritimes",0,,,,,,
006-02,"Deuxième circonscription des Alpes-Maritimes",0,,,,,,
006-03,"Troisième circonscription des Alpes-Maritimes",0,,,,,,
006-04,"Quatrième circonscription des Alpes-Maritimes",0,,,,,,
006-05,"Cinquième circonscription des Alpes-Maritimes",0,,,,,,
006-06,"Sixième circonscription des Alpes-Maritimes",0,,,,,,
006-07,"Septième circonscription des Alpes-Maritimes",0,,,,,,
006-08,"Huitième circonscription des Alpes-Maritimes",0,,,,,,
006-09,"Neuvième circonscription des Alpes-Maritimes",0,,,,,,
007-01,"Première circonscription de l'Ardèche",0,,,,,,
007-02,"Deuxième circonscription de l'Ardèche",0,,,,,,
007-03,"Troisième circonscription de l'Ardèche",0,,,,,,
008-01,"Première circonscription des Ardennes",1,"ANDREO Fabien",,"La Relève citoyenne",lbd,,
008-02,"Deuxième circonscription des Ardennes",0,,,,,,
008-03,"Troisième circonscription des Ardennes",0,,,,,,
009-01,"Première circonscription d'Ariège",0,,,,,,
009-02,"Deuxième circonscription d'Ariège",0,,,,,,
010-01,"Première circonscription de l'Aube",0,,,,,,
010-02,"Deuxième circonscription de l'Aube",0,,,,,,
010-03,"Troisième circonscription de l'Aube",0,,,,,,
011-01,"Première circonscription de l'Aude",0,,,,,,
011-02,"Deuxième circonscription de l'Aude",0,,,,,,
011-03,"Troisième circonscription de l'Aude",0,,,,,,
012-01,"Première circonscription de l'Aveyron",0,,,,,,
012-02,"Deuxième circonscription de l'Aveyron",0,,,,,,
012-03,"Troisième circonscription de l'Aveyron",0,,,,,,
013-01,"Première circonscription des Bouches-du-Rhône",0,,,,,,
013-02,"Deuxième circonscription des Bouches-du-Rhône",0,,,,,,
013-03,"Troisième circonscription des Bouches-du-Rhône",0,,,,,,
013-04,"Quatrième circonscription des Bouches-du-Rhône",0,,,,,,
013-05,"Cinquième circonscription des Bouches-du-Rhône",0,,,,,,
013-06,"Sixième circonscription des Bouches-du-Rhône",0,,,,,,
013-07,"Septième circonscription des Bouches-du-Rhône",0,,,,,,
013-08,"Huitième circonscription des Bouches-du-Rhône",1,"TINELLI Ange","Pierre-André Rohard","Parti Pirate",pirate,,
013-09,"Neuvième circonscription des Bouches-du-Rhône",0,,,,,,
013-10,"Dixième circonscription des Bouches-du-Rhône",0,,,,,,
013-11,"Onzième circonscription des Bouches-du-Rhône",0,,,,,,
013-12,"Douzième circonscription des Bouches-du-Rhône",0,,,,,,
013-13,"Treizième circonscription des Bouches-du-Rhône",0,,,,,,
013-14,"Quatorzième circonscription des Bouches-du-Rhône",0,,,,,,
013-15,"Quinzième circonscription des Bouches-du-Rhône",1,"FORTANE Jean-Marc",,"Participation Citoyenne",lbd,,
013-16,"Seizième circonscription des Bouches-du-Rhône",0,,,,,,
014-01,"Première circonscription du Calvados",0,,,,,,
014-02,"Deuxième circonscription du Calvados",1,"HOMMAIS Jérôme",,"Participation Citoyenne",lbd,,
014-03,"Troisième circonscription du Calvados",0,,,,,,
014-04,"Quatrième circonscription du Calvados",0,,,,,,
014-05,"Cinquième circonscription du Calvados",1,"ATTARD Isabelle",,"La Relève citoyenne",lbd,,
014-06,"Sixième circonscription du Calvados",0,,,,,,
015-01,"Première circonscription du Cantal",0,,,,,,
015-02,"Deuxième circonscription du Cantal",1,"MAILLARD Emmanuel",,"Parti Pirate",pirate,,
016-01,"Première circonscription de Charente",0,,,,,,
016-02,"Deuxième circonscription de Charente",0,,,,,,
016-03,"Troisième circonscription de Charente",0,,,,,,
017-01,"Première circonscription de Charente-Maritime",0,,,,,,
017-02,"Deuxième circonscription de Charente-Maritime",0,,,,,,
017-03,"Troisième circonscription de Charente-Maritime",0,,,,,,
017-04,"Quatrième circonscription de Charente-Maritime",0,,,,,,
017-05,"Cinquième circonscription de Charente-Maritime",1,"GUILLORY Patrice",,"La Relève citoyenne",lbd,,
018-01,"Première circonscription du Cher",0,,,,,,
018-02,"Deuxième circonscription du Cher",0,,,,,,
018-03,"Troisième circonscription du Cher",0,,,,,,
019-01,"Première circonscription de Corrèze",0,,,,,,
019-02,"Deuxième circonscription de Corrèze",0,,,,,,
021-01,"Première circonscription de Côte-d'Or",0,,,,,,
021-02,"Deuxième circonscription de Côte-d'Or",0,,,,,,
021-03,"Troisième circonscription de Côte-d'Or",0,,,,,,
021-04,"Quatrième circonscription de Côte-d'Or",0,,,,,,
021-05,"Cinquième circonscription de Côte-d'Or",0,,,,,,
022-01,"Première circonscription des Côtes-d'Armor",0,,,,,,
022-02,"Deuxième circonscription des Côtes-d'Armor",0,,,,,,
022-03,"Troisième circonscription des Côtes-d'Armor",0,,,,,,
022-04,"Quatrième circonscription des Côtes-d'Armor",0,,,,,,
022-05,"Cinquième circonscription des Côtes-d'Armor",0,,,,,,
023-01,"Première circonscription de la Creuse",0,,,,,,
024-01,"Première circonscription de la Dordogne",0,,,,,,
024-02,"Deuxième circonscription de la Dordogne",0,,,,,,
024-03,"Troisième circonscription de la Dordogne",0,,,,,,
024-04,"Quatrième circonscription de la Dordogne",0,,,,,,
025-01,"Première circonscription du Doubs",0,,,,,,
025-02,"Deuxième circonscription du Doubs",0,,,,,,
025-03,"Troisième circonscription du Doubs",0,,,,,,
025-04,"Quatrième circonscription du Doubs",0,,,,,,
025-05,"Cinquième circonscription du Doubs",0,,,,,,
026-01,"Première circonscription de la Drôme",0,,,,,,
026-02,"Deuxième circonscription de la Drôme",0,,,,,,
026-03,"Troisième circonscription de la Drôme",0,,,,,,
026-04,"Quatrième circonscription de la Drôme",0,,,,,,
027-01,"Première circonscription de l'Eure",0,,,,,,
027-02,"Deuxième circonscription de l'Eure",0,,,,,,
027-03,"Troisième circonscription de l'Eure",0,,,,,,
027-04,"Quatrième circonscription de l'Eure",0,,,,,,
027-05,"Cinquième circonscription de l'Eure",0,,,,,,
028-01,"Première circonscription d'Eure-et-Loir",0,,,,,,
028-02,"Deuxième circonscription d'Eure-et-Loir",0,,,,,,
028-03,"Troisième circonscription d'Eure-et-Loir",0,,,,,,
028-04,"Quatrième circonscription d'Eure-et-Loir",0,,,,,,
029-01,"Première circonscription du Finistère",0,,,,,,
029-02,"Deuxième circonscription du Finistère",0,,,,,,
029-03,"Troisième circonscription du Finistère",0,,,,,,
029-04,"Quatrième circonscription du Finistère",0,,,,,,
029-05,"Cinquième circonscription du Finistère",0,,,,,,
029-06,"Sixième circonscription du Finistère",0,,,,,,
029-07,"Septième circonscription du Finistère",0,,,,,,
029-08,"Huitième circonscription du Finistère",0,,,,,,
02a-01,"Première circonscription de Corse-du-Sud",0,,,,,,
02a-02,"Deuxième circonscription de Corse-du-Sud",0,,,,,,
02b-01,"Première circonscription de Haute-Corse",1,"Mariani Le Baron",,"Parti Pirate",pirate,,
02b-02,"Deuxième circonscription de Haute-Corse",0,,,,,,
030-01,"Première circonscription du Gard",0,,,,,,
030-02,"Deuxième circonscription du Gard",0,,,,,,
030-03,"Troisième circonscription du Gard",0,,,,,,
030-04,"Quatrième circonscription du Gard",0,,,,,,
030-05,"Cinquième circonscription du Gard",0,,,,,,
030-06,"Sixième circonscription du Gard",0,,,,,,
031-01,"Première circonscription de la Haute-Garonne",0,,,,,,
031-02,"Deuxième circonscription de la Haute-Garonne",0,,,,,,
031-03,"Troisième circonscription de la Haute-Garonne",1,"GABORIAUD Romain",,"Parti Pirate",pirate,,
031-04,"Quatrième circonscription de la Haute-Garonne",0,,,,,,
031-05,"Cinquième circonscription de la Haute-Garonne",0,,,,,,
031-06,"Sixième circonscription de la Haute-Garonne",1,"MAHLE Wolfgang",,"Parti Pirate",pirate,,
031-07,"Septième circonscription de la Haute-Garonne",0,,,,,,
031-08,"Huitième circonscription de la Haute-Garonne",0,,,,,,
031-09,"Neuvième circonscription de la Haute-Garonne",0,,,,,,
031-10,"Dixième circonscription de la Haute-Garonne",0,,,,,,
032-01,"Première circonscription du Gers",0,,,,,,
032-02,"Deuxième circonscription du Gers",1,"COLLOT Jeremy",,"Parti Pirate",pirate,,
033-01,"Première circonscription de la Gironde",0,,,,,,
033-02,"Deuxième circonscription de la Gironde",0,,,,,,
033-03,"Troisième circonscription de la Gironde",0,,,,,,
033-04,"Quatrième circonscription de la Gironde",0,,,,,,
033-05,"Cinquième circonscription de la Gironde",0,,,,,,
033-06,"Sixième circonscription de la Gironde",0,,,,,,
033-07,"Septième circonscription de la Gironde",0,,,,,,
033-08,"Huitième circonscription de la Gironde",0,,,,,,
033-09,"Neuvième circonscription de la Gironde",0,,,,,,
033-10,"Dixième circonscription de la Gironde",0,,,,,,
033-11,"Onzième circonscription de la Gironde",0,,,,,,
033-12,"Douzième circonscription de la Gironde",0,,,,,,
034-01,"Première circonscription de l'Hérault",0,,,,,,
034-02,"Deuxième circonscription de l'Hérault",0,,,,,,
034-03,"Troisième circonscription de l'Hérault",0,,,,,,
034-04,"Quatrième circonscription de l'Hérault",0,,,,,,
034-05,"Cinquième circonscription de l'Hérault",0,,,,,,
034-06,"Sixième circonscription de l'Hérault",0,,,,,,
034-07,"Septième circonscription de l'Hérault",0,,,,,,
034-08,"Huitième circonscription de l'Hérault",0,,,,,,
034-09,"Neuvième circonscription de l'Hérault",0,,,,,,
035-01,"Première circonscription d'Ille-et-Vilaine",1,"MARCHANDISE Charlotte","Florent Le Saout","La Relève citoyenne",lbd,https://liberez-vous.org/communiques/le-parti-pirate-annonce-ses-candidatures-en-ille-et-vilaine/,
035-02,"Deuxième circonscription d'Ille-et-Vilaine",1,"PICARD Yves","Camille Desmots","Parti Pirate",pirate,https://liberez-vous.org/communiques/le-parti-pirate-annonce-ses-candidatures-en-ille-et-vilaine/,
035-03,"Troisième circonscription d'Ille-et-Vilaine",0,,,,,,
035-04,"Quatrième circonscription d'Ille-et-Vilaine",0,,,,,,
035-05,"Cinquième circonscription d'Ille-et-Vilaine",0,,,,,,
035-06,"Sixième circonscription d'Ille-et-Vilaine",0,,,,,,
035-07,"Septième circonscription d'Ille-et-Vilaine",0,,,,,,
035-08,"Huitième circonscription d'Ille-et-Vilaine",1,"OZ Mistral","Jean Marc Duval","Parti Pirate",pirate,https://liberez-vous.org/communiques/le-parti-pirate-annonce-ses-candidatures-en-ille-et-vilaine/,
036-01,"Première circonscription de l'Indre",0,,,,,,
036-02,"Deuxième circonscription de l'Indre",1,"SCHWARZ Pierre",,"La Relève citoyenne",lbd,,
037-01,"Première circonscription de l'Indre-et-Loire",0,,,,,,
037-02,"Deuxième circonscription de l'Indre-et-Loire",0,,,,,,
037-03,"Troisième circonscription de l'Indre-et-Loire",0,,,,,,
037-04,"Quatrième circonscription de l'Indre-et-Loire",0,,,,,,
037-05,"Cinquième circonscription de l'Indre-et-Loire",0,,,,,,
038-01,"Première circonscription de l'Isère",0,,,,,,
038-02,"Deuxième circonscription de l'Isère",0,,,,,,
038-03,"Troisième circonscription de l'Isère",1,"DE VERDIERE Patrick",,"La Relève citoyenne",lbd,,
038-04,"Quatrième circonscription de l'Isère",0,,,,,,
038-05,"Cinquième circonscription de l'Isère",0,,,,,,
038-06,"Sixième circonscription de l'Isère",0,,,,,,
038-07,"Septième circonscription de l'Isère",0,,,,,,
038-08,"Huitième circonscription de l'Isère",0,,,,,,
038-09,"Neuvième circonscription de l'Isère",0,,,,,,
038-10,"Dixième circonscription de l'Isère",0,,,,,,
039-01,"Première circonscription du Jura",0,,,,,,
039-02,"Deuxième circonscription du Jura",0,,,,,,
039-03,"Troisième circonscription du Jura",0,,,,,,
040-01,"Première circonscription des Landes",0,,,,,,
040-02,"Deuxième circonscription des Landes",0,,,,,,
040-03,"Troisième circonscription des Landes",0,,,,,,
041-01,"Première circonscription du Loir-et-Cher",0,,,,,,
041-02,"Deuxième circonscription du Loir-et-Cher",0,,,,,,
041-03,"Troisième circonscription du Loir-et-Cher",0,,,,,,
042-01,"Première circonscription de la Loire",0,,,,,,
042-02,"Deuxième circonscription de la Loire",0,,,,,,
042-03,"Troisième circonscription de la Loire",0,,,,,,
042-04,"Quatrième circonscription de la Loire",0,,,,,,
042-05,"Cinquième circonscription de la Loire",0,,,,,,
042-06,"Sixième circonscription de la Loire",0,,,,,,
043-01,"Première circonscription de la Haute-Loire",0,,,,,,
043-02,"Deuxième circonscription de la Haute-Loire",1,"MONJAUZE Alexis",,"Participation Citoyenne",lbd,,
044-01,"Première circonscription de Loire-Atlantique",1,"MEDKOUR Margot",,"Mouvement du 10 novembre",lbd,,
044-02,"Deuxième circonscription de Loire-Atlantique",1,"HAWAY Mary",,"Mouvement du 10 novembre",lbd,,
044-03,"Troisième circonscription de Loire-Atlantique",1,"BOULÉ Sylvie",,"Mouvement du 10 novembre",lbd,,
044-04,"Quatrième circonscription de Loire-Atlantique",0,,,,,,
044-05,"Cinquième circonscription de Loire-Atlantique",1,"BIORET Josette",,"Parti Pirate",pirate,,
044-06,"Sixième circonscription de Loire-Atlantique",0,,,,,,
044-07,"Septième circonscription de Loire-Atlantique",0,,,,,,
044-08,"Huitième circonscription de Loire-Atlantique",1,"ROUSSEAU Pierre-Christophe",,"Parti Pirate",pirate,,
044-09,"Neuvième circonscription de Loire-Atlantique",1,"BOULOIS Delphine",,"Participation Citoyenne",lbd,,
044-10,"Dixième circonscription de Loire-Atlantique",0,,,,,,
045-01,"Première circonscription du Loiret",0,,,,,,
045-02,"Deuxième circonscription du Loiret",0,,,,,,
045-03,"Troisième circonscription du Loiret",0,,,,,,
045-04,"Quatrième circonscription du Loiret",0,,,,,,
045-05,"Cinquième circonscription du Loiret",0,,,,,,
045-06,"Sixième circonscription du Loiret",0,,,,,,
046-01,"Première circonscription du Lot",0,,,,,,
046-02,"Deuxième circonscription du Lot",0,,,,,,
047-01,"Première circonscription du Lot-et-Garonne",0,,,,,,
047-02,"Deuxième circonscription du Lot-et-Garonne",0,,,,,,
047-03,"Troisième circonscription du Lot-et-Garonne",0,,,,,,
048-01,"Première circonscription de la Lozère",0,,,,,,
049-01,"Première circonscription du Maine-et-Loire",1,"DELAVAUD Jérémie",,"Parti Pirate",pirate,,
049-02,"Deuxième circonscription du Maine-et-Loire",0,,,,,,
049-03,"Troisième circonscription du Maine-et-Loire",0,,,,,,
049-04,"Quatrième circonscription du Maine-et-Loire",1,"TALLIER Melvin",,"Participation Citoyenne",lbd,,
049-05,"Cinquième circonscription du Maine-et-Loire",0,,,,,,
049-06,"Sixième circonscription du Maine-et-Loire",0,,,,,,
049-07,"Septième circonscription du Maine-et-Loire",0,,,,,,
050-01,"Première circonscription de la Manche",0,,,,,,
050-02,"Deuxième circonscription de la Manche",0,,,,,,
050-03,"Troisième circonscription de la Manche",0,,,,,,
050-04,"Quatrième circonscription de la Manche",0,,,,,,
051-01,"Première circonscription de la Marne",0,,,,,,
051-02,"Deuxième circonscription de la Marne",0,,,,,,
051-03,"Troisième circonscription de la Marne",0,,,,,,
051-04,"Quatrième circonscription de la Marne",0,,,,,,
051-05,"Cinquième circonscription de la Marne",0,,,,,,
052-01,"Première circonscription de la Haute-Marne",0,,,,,,
052-02,"Deuxième circonscription de la Haute-Marne",0,,,,,,
053-01,"Première circonscription de la Mayenne",0,,,,,,
053-02,"Deuxième circonscription de la Mayenne",0,,,,,,
053-03,"Troisième circonscription de la Mayenne",0,,,,,,
054-01,"Première circonscription de Meurthe-et-Moselle",0,,,,,,
054-02,"Deuxième circonscription de Meurthe-et-Moselle",0,,,,,,
054-03,"Troisième circonscription de Meurthe-et-Moselle",0,,,,,,
054-04,"Quatrième circonscription de Meurthe-et-Moselle",1,"PARTHUISOT Eric",,"Parti Pirate",pirate,,
054-05,"Cinquième circonscription de Meurthe-et-Moselle",0,,,,,,
054-06,"Sixième circonscription de Meurthe-et-Moselle",0,,,,,,
055-01,"Première circonscription de la Meuse",0,,,,,,
055-02,"Deuxième circonscription de la Meuse",0,,,,,,
056-01,"Première circonscription du Morbihan",0,,,,,,
056-02,"Deuxième circonscription du Morbihan",0,,,,,,
056-03,"Troisième circonscription du Morbihan",0,,,,,,
056-04,"Quatrième circonscription du Morbihan",0,,,,,,
056-05,"Cinquième circonscription du Morbihan",0,,,,,,
056-06,"Sixième circonscription du Morbihan",0,,,,,,
057-01,"Première circonscription de la Moselle",0,,,,,,
057-02,"Deuxième circonscription de la Moselle",0,,,,,,
057-03,"Troisième circonscription de la Moselle",0,,,,,,
057-04,"Quatrième circonscription de la Moselle",0,,,,,,
057-05,"Cinquième circonscription de la Moselle",0,,,,,,
057-06,"Sixième circonscription de la Moselle",0,,,,,,
057-07,"Septième circonscription de la Moselle",0,,,,,,
057-08,"Huitième circonscription de la Moselle",0,,,,,,
057-09,"Neuvième circonscription de la Moselle",0,,,,,,
058-01,"Première circonscription de la Nièvre",0,,,,,,
058-02,"Deuxième circonscription de la Nièvre",0,,,,,,
059-01,"Première circonscription du Nord",1,"ABDELKAFAR Slimane",,"Parti Pirate",pirate,,
059-02,"Deuxième circonscription du Nord",0,,,,,,
059-03,"Troisième circonscription du Nord",0,,,,,,
059-04,"Quatrième circonscription du Nord",1,"ROUBINOWITZ Alexandre",,"La Relève citoyenne",lbd,,
059-05,"Cinquième circonscription du Nord",0,,,,,,
059-06,"Sixième circonscription du Nord",1,"LEFEVRE Anne",,"La Relève citoyenne",lbd,,
059-07,"Septième circonscription du Nord",1,"SGARD Marlène",,PACE,lbd,,
059-08,"Huitième circonscription du Nord",0,,,,,,
059-09,"Neuvième circonscription du Nord",0,,,,,,
059-10,"Dixième circonscription du Nord",0,,,,,,
059-11,"Onzième circonscription du Nord",0,,,,,,
059-12,"Douzième circonscription du Nord",0,,,,,,
059-13,"Treizième circonscription du Nord",0,,,,,,
059-14,"Quatorzième circonscription du Nord",0,,,,,,
059-15,"Quinzième circonscription du Nord",0,,,,,,
059-16,"Seizième circonscription du Nord",0,,,,,,
059-17,"Dix-septième circonscription du Nord",0,,,,,,
059-18,"Dix-huitième circonscription du Nord",0,,,,,,
059-19,"Dix-neuvième circonscription du Nord",0,,,,,,
059-20,"Vingtième circonscription du Nord",0,,,,,,
059-21,"Vingt-et-unième circonscription du Nord",0,,,,,,
060-01,"Première circonscription de l'Oise",0,,,,,,
060-02,"Deuxième circonscription de l'Oise",0,,,,,,
060-03,"Troisième circonscription de l'Oise",0,,,,,,
060-04,"Quatrième circonscription de l'Oise",0,,,,,,
060-05,"Cinquième circonscription de l'Oise",0,,,,,,
060-06,"Sixième circonscription de l'Oise",0,,,,,,
060-07,"Septième circonscription de l'Oise",0,,,,,,
061-01,"Première circonscription de l'Orne",0,,,,,,
061-02,"Deuxième circonscription de l'Orne",1,"CHARLIER Benjamin",,"A Nous La Démocratie",lbd,,
061-03,"Troisième circonscription de l'Orne",0,,,,,,
062-01,"Première circonscription du Pas-de-Calais",0,,,,,,
062-02,"Deuxième circonscription du Pas-de-Calais",0,,,,,,
062-03,"Troisième circonscription du Pas-de-Calais",0,,,,,,
062-04,"Quatrième circonscription du Pas-de-Calais",0,,,,,,
062-05,"Cinquième circonscription du Pas-de-Calais",0,,,,,,
062-06,"Sixième circonscription du Pas-de-Calais",0,,,,,,
062-07,"Septième circonscription du Pas-de-Calais",0,,,,,,
062-08,"Huitième circonscription du Pas-de-Calais",0,,,,,,
062-09,"Neuvième circonscription du Pas-de-Calais",0,,,,,,
062-10,"Dixième circonscription du Pas-de-Calais",0,,,,,,
062-11,"Onzième circonscription du Pas-de-Calais",0,,,,,,
062-12,"Douzième circonscription du Pas-de-Calais",0,,,,,,
063-01,"Première circonscription du Puy-de-Dôme",0,,,,,,
063-02,"Deuxième circonscription du Puy-de-Dôme",0,,,,,,
063-03,"Troisième circonscription du Puy-de-Dôme",0,,,,,,
063-04,"Quatrième circonscription du Puy-de-Dôme",0,,,,,,
063-05,"Cinquième circonscription du Puy-de-Dôme",0,,,,,,
064-01,"Première circonscription des Pyrénées-Atlantiques",0,,,,,,
064-02,"Deuxième circonscription des Pyrénées-Atlantiques",0,,,,,,
064-03,"Troisième circonscription des Pyrénées-Atlantiques",0,,,,,,
064-04,"Quatrième circonscription des Pyrénées-Atlantiques",0,,,,,,
064-05,"Cinquième circonscription des Pyrénées-Atlantiques",0,,,,,,
064-06,"Sixième circonscription des Pyrénées-Atlantiques",0,,,,,,
065-01,"Première circonscription des Hautes-Pyrénées",1,"ISLA Raphael","Morgane Govoreanu","Parti Pirate",pirate,http://www.famille-isla.net/raphael/blog/index.php,
065-02,"Deuxième circonscription des Hautes-Pyrénées",0,,,,,,
066-01,"Première circonscription des Pyrénées-Orientales",0,,,,,,
066-02,"Deuxième circonscription des Pyrénées-Orientales",0,,,,,,
066-03,"Troisième circonscription des Pyrénées-Orientales",0,,,,,,
066-04,"Quatrième circonscription des Pyrénées-Orientales",0,,,,,,
067-01,"Première circonscription du Bas-Rhin",0,,,,,,
067-02,"Deuxième circonscription du Bas-Rhin",0,,,,,,
067-03,"Troisième circonscription du Bas-Rhin",0,,,,,,
067-04,"Quatrième circonscription du Bas-Rhin",0,,,,,,
067-05,"Cinquième circonscription du Bas-Rhin",0,,,,,,
067-06,"Sixième circonscription du Bas-Rhin",1,"LAUSTRIAT Olivier",,"Participation Citoyenne",lbd,,
067-07,"Septième circonscription du Bas-Rhin",0,,,,,,
067-08,"Huitième circonscription du Bas-Rhin",0,,,,,,
067-09,"Neuvième circonscription du Bas-Rhin",0,,,,,,
068-01,"Première circonscription du Haut-Rhin",0,,,,,,
068-02,"Deuxième circonscription du Haut-Rhin",1,"PETITDEMANGE Nicolas",,"Parti Pirate",pirate,,
068-03,"Troisième circonscription du Haut-Rhin",0,,,,,,
068-04,"Quatrième circonscription du Haut-Rhin",0,,,,,,
068-05,"Cinquième circonscription du Haut-Rhin",1,"REFAY Guillaume",,"Participation Citoyenne",lbd,,
068-06,"Sixième circonscription du Haut-Rhin",0,,,,,,
069-01,"Première circonscription du Rhône",1,"Boiché Caroline",,"Parti Pirate",pirate,,
069-02,"Deuxième circonscription du Rhône",1,"PERRIN-GILBERT Nathalie",,GRAM,lbd,,
069-03,"Troisième circonscription du Rhône",0,,,,,,
069-04,"Quatrième circonscription du Rhône",1,"ROMANTZOFF Nicolas",,"Parti Pirate",pirate,,
069-05,"Cinquième circonscription du Rhône",1,"HEMAIN Séverine",,"La Relève citoyenne",lbd,,
069-06,"Sixième circonscription du Rhône",0,,,,,,
069-07,"Septième circonscription du Rhône",1,"HAASSER Agnès",,"Parti Pirate",pirate,,
069-08,"Huitième circonscription du Rhône",0,,,,,,
069-09,"Neuvième circonscription du Rhône",0,,,,,,
069-10,"Dixième circonscription du Rhône",0,,,,,,
069-11,"Onzième circonscription du Rhône",0,,,,,,
069-12,"Douzième circonscription du Rhône",0,,,,,,
069-13,"Treizième circonscription du Rhône",0,,,,,,
069-14,"Quatorzième circonscription du Rhône",0,,,,,,
070-01,"Première circonscription de la Haute-Saône",0,,,,,,
070-02,"Deuxième circonscription de la Haute-Saône",0,,,,,,
071-01,"Première circonscription de Saône-et-Loire",0,,,,,,
071-02,"Deuxième circonscription de Saône-et-Loire",0,,,,,,
071-03,"Troisième circonscription de Saône-et-Loire",0,,,,,,
071-04,"Quatrième circonscription de Saône-et-Loire",0,,,,,,
071-05,"Cinquième circonscription de Saône-et-Loire",0,,,,,,
072-01,"Première circonscription de la Sarthe",0,,,,,,
072-02,"Deuxième circonscription de la Sarthe",0,,,,,,
072-03,"Troisième circonscription de la Sarthe",1,"VALLAS Nordine",,"Parti Pirate",pirate,,
072-04,"Quatrième circonscription de la Sarthe",1,"BESSAU Nicolas",,"Parti Pirate",pirate,,
072-05,"Cinquième circonscription de la Sarthe",0,,,,,,
073-01,"Première circonscription de Savoie",1,"DELSART Marie-France",,"Participation Citoyenne",lbd,,
073-02,"Deuxième circonscription de Savoie",1,"FRENE Mireille",,"Participation Citoyenne",lbd,,
073-03,"Troisième circonscription de Savoie",1,"MAUDUIT François",,"Participation Citoyenne",lbd,,
073-04,"Quatrième circonscription de Savoie",0,,,,,,
074-01,"Première circonscription de Haute-Savoie",0,,,,,,
074-02,"Deuxième circonscription de Haute-Savoie",0,,,,,,
074-03,"Troisième circonscription de Haute-Savoie",1,"BOUTTAZ Claude",,"Participation Citoyenne",lbd,,
074-04,"Quatrième circonscription de Haute-Savoie",0,,,,,,
074-05,"Cinquième circonscription de Haute-Savoie",0,,,,,,
074-06,"Sixième circonscription de Haute-Savoie",0,,,,,,
075-01,"Première circonscription de Paris",1,"LE ROY Ronan","Sandrine Villers","Parti Pirate",pirate,https://twitter.com/ronanleroy,https://pbs.twimg.com/profile_images/1083709532/avatar.jpg
075-02,"Deuxième circonscription de Paris",0,,,,,,
075-03,"Troisième circonscription de Paris",0,,,,,,
075-04,"Quatrième circonscription de Paris",1,"BARBE Florent",,"Parti Pirate",pirate,,
075-05,"Cinquième circonscription de Paris",1,"WATANABE-VERMOREL Thomas",,"Parti Pirate",pirate,,
075-06,"Sixième circonscription de Paris",1,"LAGLASSE Maxime",,"Parti Pirate",pirate,,
075-07,"Septième circonscription de Paris",1,"Nereuil Gabrielle",,"Parti Pirate",pirate,,
075-08,"Huitième circonscription de Paris",0,,"Michel Guébel",,,https://twitter.com/stephane_tardif,
075-09,"Neuvième circonscription de Paris",1,"BENARD Fanny",,"A Nous La Démocratie",lbd,,
075-10,"Dixième circonscription de Paris",1,"DAVID Romain","Caroline Plourin","Parti Pirate",pirate,,
075-11,"Onzième circonscription de Paris",1,"PETERS DESTERACT Hippolyte",,"A Nous La Démocratie",lbd,,
075-12,"Douzième circonscription de Paris",0,,,,,,
075-13,"Treizième circonscription de Paris",0,,,,,,
075-14,"Quatorzième circonscription de Paris",0,,,,,,
075-15,"Quinzième circonscription de Paris",1,"TESTUD Hélène",,"Parti Pirate",pirate,,
075-16,"Seizième circonscription de Paris",1,"BARRO Somalia",,"A Nous La Démocratie",lbd,,
075-17,"Dix-septième circonscription de Paris",1,"ROZENKRANC Jade",,"Parti Pirate",pirate,,
075-18,"Dix-huitième circonscription de Paris",1,"TALL Fatou","Aurélie Soc","A Nous La Démocratie",lbd,https://twitter.com/pirate18eme,
076-01,"Première circonscription de Seine-Maritime",0,,,,,,
076-02,"Deuxième circonscription de Seine-Maritime",0,,,,,,
076-03,"Troisième circonscription de Seine-Maritime",1,"MARCHANI Abdelkrim",,"La Relève citoyenne",lbd,,
076-04,"Quatrième circonscription de Seine-Maritime",0,,,,,,
076-05,"Cinquième circonscription de Seine-Maritime",0,,,,,,
076-06,"Sixième circonscription de Seine-Maritime",0,,,,,,
076-07,"Septième circonscription de Seine-Maritime",1,"CLUGERY Baptiste",,"Parti Pirate",pirate,,
076-08,"Huitième circonscription de Seine-Maritime",0,,,,,,
076-09,"Neuvième circonscription de Seine-Maritime",0,,,,,,
076-10,"Dixième circonscription de Seine-Maritime",0,,,,,,
077-01,"Première circonscription de Seine-et-Marne",1,"VEZILLIER Franck",,"Participation Citoyenne",lbd,,
077-02,"Deuxième circonscription de Seine-et-Marne",0,,,,,,
077-03,"Troisième circonscription de Seine-et-Marne",0,,,,,,
077-04,"Quatrième circonscription de Seine-et-Marne",0,,,,,,
077-05,"Cinquième circonscription de Seine-et-Marne",0,,,,,,
077-06,"Sixième circonscription de Seine-et-Marne",0,,,,,,
077-07,"Septième circonscription de Seine-et-Marne",0,,,,,,
077-08,"Huitième circonscription de Seine-et-Marne",0,,,,,,
077-09,"Neuvième circonscription de Seine-et-Marne",0,,,,,,
077-10,"Dixième circonscription de Seine-et-Marne",0,,,,,,
077-11,"Onzième circonscription de Seine-et-Marne",0,,,,,,
078-01,"Première circonscription des Yvelines",0,,,,,,
078-02,"Deuxième circonscription des Yvelines",1,"SAYOUS Jean-Guy",,"Participation Citoyenne",lbd,,
078-03,"Troisième circonscription des Yvelines",0,,,,,,
078-04,"Quatrième circonscription des Yvelines",0,,,,,,
078-05,"Cinquième circonscription des Yvelines",0,,,,,,
078-06,"Sixième circonscription des Yvelines",1,"ROELANDT David",,"Parti Pirate",pirate,,
078-07,"Septième circonscription des Yvelines",0,,"Antoine Benoit",,,,
078-08,"Huitième circonscription des Yvelines",0,,,,,,
078-09,"Neuvième circonscription des Yvelines",0,,,,,,
078-10,"Dixième circonscription des Yvelines",0,,,,,,
078-11,"Onzième circonscription des Yvelines",0,,,,,,
078-12,"Douzième circonscription des Yvelines",0,,,,,,
079-01,"Première circonscription des Deux-Sèvres",0,,,,,,
079-02,"Deuxième circonscription des Deux-Sèvres",0,,,,,,
079-03,"Troisième circonscription des Deux-Sèvres",0,,,,,,
080-01,"Première circonscription de la Somme",0,,,,,,
080-02,"Deuxième circonscription de la Somme",0,,,,,,
080-03,"Troisième circonscription de la Somme",1,"MONGIN David",,PACE,lbd,,
080-04,"Quatrième circonscription de la Somme",0,,,,,,
080-05,"Cinquième circonscription de la Somme",0,,,,,,
081-01,"Première circonscription du Tarn",0,,,,,,
081-02,"Deuxième circonscription du Tarn",1,"LEFETEY Ben",,"La Relève citoyenne",lbd,,
081-03,"Troisième circonscription du Tarn",0,,,,,,
082-01,"Première circonscription du Tarn-et-Garonne",0,,,,,,
082-02,"Deuxième circonscription du Tarn-et-Garonne",1,"LEVIEUX Cédric",,"Parti Pirate",pirate,,
083-01,"Première circonscription du Var",0,,,,,,
083-02,"Deuxième circonscription du Var",0,,,,,,
083-03,"Troisième circonscription du Var",1,"CHAUVET Franck",,"Participation Citoyenne",lbd,,
083-04,"Quatrième circonscription du Var",0,,,,,,
083-05,"Cinquième circonscription du Var",0,,,,,,
083-06,"Sixième circonscription du Var",0,,,,,,
083-07,"Septième circonscription du Var",0,,,,,,
083-08,"Huitième circonscription du Var",0,,,,,,
084-01,"Première circonscription du Vaucluse",0,,,,,,
084-02,"Deuxième circonscription du Vaucluse",0,,,,,,
084-03,"Troisième circonscription du Vaucluse",0,,,,,,
084-04,"Quatrième circonscription du Vaucluse",0,,,,,,
084-05,"Cinquième circonscription du Vaucluse",0,,,,,,
085-01,"Première circonscription de Vendée",0,,,,,,
085-02,"Deuxième circonscription de Vendée",0,,,,,,
085-03,"Troisième circonscription de Vendée",0,,,,,,
085-04,"Quatrième circonscription de Vendée",0,,,,,,
085-05,"Cinquième circonscription de Vendée",0,,,,,,
086-01,"Première circonscription de la Vienne",0,,,,,,
086-02,"Deuxième circonscription de la Vienne",0,,,,,,
086-03,"Troisième circonscription de la Vienne",0,,,,,,
086-04,"Quatrième circonscription de la Vienne",0,,,,,,
087-01,"Première circonscription de la Haute-Vienne",0,,,,,,
087-02,"Deuxième circonscription de la Haute-Vienne",0,,,,,,
087-03,"Troisième circonscription de la Haute-Vienne",0,,,,,,
088-01,"Première circonscription des Vosges",0,,,,,,
088-02,"Deuxième circonscription des Vosges",0,,,,,,
088-03,"Troisième circonscription des Vosges",0,,,,,,
088-04,"Quatrième circonscription des Vosges",0,,,,,,
089-01,"Première circonscription de l'Yonne",0,,,,,,
089-02,"Deuxième circonscription de l'Yonne",0,,,,,,
089-03,"Troisième circonscription de l'Yonne",0,,,,,,
090-01,"Première circonscription du Territoire-de-Belfort",0,,,,,,
090-02,"Deuxième circonscription du Territoire-de-Belfort",0,,,,,,
091-01,"Première circonscription de l'Essonne",1,"LACASSAGNE Sylvain",,"Parti Pirate",pirate,,
091-02,"Deuxième circonscription de l'Essonne",0,,,,,,
091-03,"Troisième circonscription de l'Essonne",1,"ROY Blandine",,"Parti Pirate",pirate,,
091-04,"Quatrième circonscription de l'Essonne",1,"RAVILLARD Coraline",,"Parti Pirate",pirate,,
091-05,"Cinquième circonscription de l'Essonne",1,"JORSSEN Evan",,"Parti Pirate",pirate,,
091-06,"Sixième circonscription de l'Essonne",1,"GEISLER Stéphanie",,"Parti Pirate",pirate,,
091-07,"Septième circonscription de l'Essonne",0,,,,,,
091-08,"Huitième circonscription de l'Essonne",1,"GHEHIOUÈCHE Farid",,"Parti Pirate",pirate,,
091-09,"Neuvième circonscription de l'Essonne",0,,,,,,
091-10,"Dixième circonscription de l'Essonne",0,,,,,,
092-01,"Première circonscription des Hauts-de-Seine",0,,,,,,
092-02,"Deuxième circonscription des Hauts-de-Seine",0,,,,,,
092-03,"Troisième circonscription des Hauts-de-Seine",1,"BANCHET Julien",,"Parti Pirate",pirate,,
092-04,"Quatrième circonscription des Hauts-de-Seine",1,"LONC François",,"Parti Pirate",pirate,,
092-05,"Cinquième circonscription des Hauts-de-Seine",1,"HERVO Xavier",,"La Relève citoyenne",lbd,,
092-06,"Sixième circonscription des Hauts-de-Seine",0,,,,,,
092-07,"Septième circonscription des Hauts-de-Seine",0,,,,,,
092-08,"Huitième circonscription des Hauts-de-Seine",1,"SCHNEIDER Frédéric",,"Parti Pirate",pirate,,
092-09,"Neuvième circonscription des Hauts-de-Seine",0,,,,,,
092-10,"Dixième circonscription des Hauts-de-Seine",0,,,,,,
092-11,"Onzième circonscription des Hauts-de-Seine",1,"RAMONET Pascal",,"Parti Pirate",pirate,,
092-12,"Douzième circonscription des Hauts-de-Seine",1,"PERDRIAULT Mathieu",,"A Nous La Démocratie",lbd,,
092-13,"Treizième circonscription des Hauts-de-Seine",0,,,,,,
093-01,"Première circonscription de Seine-Saint-Denis",0,,,,,,
093-02,"Deuxième circonscription de Seine-Saint-Denis",0,,,,,,
093-03,"Troisième circonscription de Seine-Saint-Denis",0,,,,,,
093-04,"Quatrième circonscription de Seine-Saint-Denis",0,,,,,,
093-05,"Cinquième circonscription de Seine-Saint-Denis",1,"PERROD Frédéric",,"Parti Pirate",pirate,https://twitter.com/perrod2012,
093-06,"Sixième circonscription de Seine-Saint-Denis",1,"MARIE Florie",,"Parti Pirate",pirate,,
093-07,"Septième circonscription de Seine-Saint-Denis",1,"MICUCCI Jérôme","Elodie Queudrue","Parti Pirate",pirate,https://twitter.com/daily_jeje,
093-08,"Huitième circonscription de Seine-Saint-Denis",0,,,,,,
093-09,"Neuvième circonscription de Seine-Saint-Denis",0,,,,,,
093-10,"Dixième circonscription de Seine-Saint-Denis",0,,,,,,
093-11,"Onzième circonscription de Seine-Saint-Denis",0,,,,,,
093-12,"Douzième circonscription de Seine-Saint-Denis",0,,,,,,
094-01,"Première circonscription du Val-de-Marne",1,"LESAEGE Clément","Marc Zeller","Parti Pirate",pirate,https://twitter.com/clesaege,
094-02,"Deuxième circonscription du Val-de-Marne",1,"COUSY David",,"Participation Citoyenne",lbd,,
094-03,"Troisième circonscription du Val-de-Marne",0,,,,,,
094-04,"Quatrième circonscription du Val-de-Marne",0,,,,,,
094-05,"Cinquième circonscription du Val-de-Marne",1,"LABOUS Kristell",,"La Relève citoyenne",lbd,,
094-06,"Sixième circonscription du Val-de-Marne",0,,,,,,
094-07,"Septième circonscription du Val-de-Marne",0,,,,,,
094-08,"Huitième circonscription du Val-de-Marne",0,,,,,,
094-09,"Neuvième circonscription du Val-de-Marne",1,"MILISAVLJEVIC Boris",,"A Nous La Démocratie",lbd,,
094-10,"Dixième circonscription du Val-de-Marne",0,,,,,,
094-11,"Onzième circonscription du Val-de-Marne",1,"VANNIER David",,"La Relève citoyenne",lbd,,
095-01,"Première circonscription du Val-d'Oise",0,,,,,,
095-02,"Deuxième circonscription du Val-d'Oise",0,,,,,,
095-03,"Troisième circonscription du Val-d'Oise",0,,,,,,
095-04,"Quatrième circonscription du Val-d'Oise",0,,,,,,
095-05,"Cinquième circonscription du Val-d'Oise",0,,,,,,
095-06,"Sixième circonscription du Val-d'Oise",1,"PENEL Yohan",,"La Relève citoyenne",lbd,,
095-07,"Septième circonscription du Val-d'Oise",0,,,,,,
095-08,"Huitième circonscription du Val-d'Oise",1,"BARA Adhal",,"A Nous La Démocratie",lbd,,
095-09,"Neuvième circonscription du Val-d'Oise",0,,,,,,
095-10,"Dixième circonscription du Val-d'Oise",1,"DE SMET Sylvain",,"Parti Pirate",pirate,,
971-01,"Première circonscription de Guadeloupe",0,,,,,,
971-02,"Deuxième circonscription de Guadeloupe",0,,,,,,
971-03,"Troisième circonscription de Guadeloupe",0,,,,,,
971-04,"Quatrième circonscription de Guadeloupe",0,,,,,,
972-01,"Première circonscription de Martinique",0,,,,,,
972-02,"Deuxième circonscription de Martinique",0,,,,,,
972-03,"Troisième circonscription de Martinique",0,,,,,,
972-04,"Quatrième circonscription de Martinique",0,,,,,,
973-01,"Première circonscription de Guyane",0,,,,,,
973-02,"Deuxième circonscription de Guyane",0,,,,,,
974-01,"Première circonscription de la Réunion",0,,,,,,
974-02,"Deuxième circonscription de la Réunion",0,,,,,,
974-03,"Troisième circonscription de la Réunion",0,,,,,,
974-04,"Quatrième circonscription de la Réunion",0,,,,,,
974-05,"Cinquième circonscription de la Réunion",0,,,,,,
974-06,"Sixième circonscription de la Réunion",0,,,,,,
974-07,"Septième circonscription de la Réunion",0,,,,,,
975-01,"Première circonscription de Saint-Pierre-et-Miquelon",0,,,,,,
976-01,"Première circonscription de Mayotte",0,,,,,,
976-02,"Deuxième circonscription de Mayotte",0,,,,,,
977-01,"Circonscription unique de Saint-Barthélemy et Saint-Martin",0,,,,,,
986-01,"Première circonscription de Wallis-et-Futuna",0,,,,,,
987-01,"Première circonscription de la Polynésie Française",0,,,,,,
987-02,"Deuxième circonscription de la Polynésie Française",0,,,,,,
987-03,"Troisième circonscription de la Polynésie Française",0,,,,,,
988-01,"Première circonscription de la Nouvelle-Calédonie",0,,,,,,
988-02,"Deuxième circonscription de la Nouvelle-Calédonie",0,,,,,,
999-01,"Première circonscription des français de l'étranger",1,"FERNANDEZ Florent",,"Parti Pirate",pirate,,
999-02,"Deuxième circonscription des français de l'étranger",0,,,,,,
999-03,"Troisième circonscription des français de l'étranger",1,"VERMOREL Veronique",,"Parti Pirate",pirate,,
999-04,"Quatrième circonscription des français de l'étranger",1,"SAUMIER Juliette",,"Parti Pirate",pirate,,
999-05,"Cinquième circonscription des français de l'étranger",1,"Guebel Caroline",,"Parti Pirate",pirate,,
999-06,"Sixième circonscription des français de l'étranger",1,"WATANABE Tie",,"Parti Pirate",pirate,,
999-07,"Septième circonscription des français de l'étranger",1,"LYON Delphine",,"Parti Pirate",pirate,,
999-08,"Huitième circonscription des français de l'étranger",1,"CAMEIRAO Mathilde",,"Parti Pirate",pirate,,
999-09,"Neuvième circonscription des français de l'étranger",1,"MESSAOUDIA Saadia",,"Parti Pirate",pirate,,
999-10,"Dixième circonscription des français de l'étranger",1,"FERRY Laure","Mathieu Garrigues","Parti Pirate",pirate,,
999-11,"Onzième circonscription des français de l'étranger",1,"AGUIAR Jennifer",,"Parti Pirate",pirate,,
